<?xml version="1.0" encoding="UTF-8"?>
<svg width="100px" height="100px" viewBox="0 0 100 100" version="1.1" xmlns="http://www.w3.org/2000/svg" xmlns:xlink="http://www.w3.org/1999/xlink">
    <!-- Generator: Sketch 64 (93537) - https://sketch.com -->
    <title>404</title>
    <desc>Created with Sketch.</desc>
    <g id="404" stroke="none" stroke-width="1" fill="none" fill-rule="evenodd">
        <g id="crops" transform="translate(10.000000, 18.000000)" fill-rule="nonzero">
            <path d="M44.1666667,32.9166667 C44.1666667,36.5963542 40,39.5833333 40,39.5833333 C40,39.5833333 35.8333333,36.5963542 35.8333333,32.9166667 C35.8333333,29.2369792 40,26.25 40,26.25 C40,26.25 44.1666667,29.2369792 44.1666667,32.9166667 Z" id="Path" fill="#91CC04"></path>
            <path d="M48.3333333,8.75 C48.3333333,13.3520507 44.6020507,17.0833333 40,17.0833333 C35.3979493,17.0833333 31.6666667,13.3520507 31.6666667,8.75 C31.6666667,4.14794931 35.3979493,0.416666667 40,0.416666667 C44.6020507,0.416666667 48.3333333,4.14794931 48.3333333,8.75 Z" id="Path" fill="#FFDA44"></path>
            <path d="M40,54.5833333 L37.2222222,54.5833333 C34.1541884,54.5833333 31.6666667,52.3445638 31.6666667,49.5833333 L34.4444444,49.5833333 C37.5124783,49.5833333 40,51.8221029 40,54.5833333 Z" id="Path" fill="#5EAC24"></path>
            <path d="M74.0740741,42.9166667 C69.5572917,42.9160273 65.7291667,46.276158 65.1000073,50.7949102 C65.0360785,50.7667759 64.9639215,50.7667759 64.8999927,50.7949102 C64.2708333,46.276158 60.4427083,42.9160273 55.9259259,42.9166667 L53.3333333,42.9166667 C53.3333333,47.979562 57.3956524,52.0833333 62.4074074,52.0833333 L63.7037037,52.0833333 L63.7037037,59.9404762 C63.7037037,60.6636556 64.2841254,61.25 65,61.25 C65.7158746,61.25 66.2962963,60.6636556 66.2962963,59.9404762 L66.2962963,52.0833333 L67.5925926,52.0833333 C72.6043476,52.0833333 76.6666667,47.979562 76.6666667,42.9166667 L74.0740741,42.9166667 Z" id="Path" fill="#91CC04"></path>
            <path d="M74.7934373,42.9166667 C70.0780976,42.9160273 66.0816886,46.276158 65.4248715,50.7949102 C65.3581324,50.7667759 64.5731235,61.25 65.3204678,61.25 C66.0678122,61.25 66.6737492,60.6636556 66.6737492,59.9404762 L66.6737492,52.0833333 L68.0270305,52.0833333 C73.2591018,52.0833333 77.5,47.979562 77.5,42.9166667 L74.7934373,42.9166667 Z" id="Path" fill="#FFFFFF" opacity="0.187406994"></path>
            <path d="M24.0740741,42.9166667 C19.5572917,42.9160273 15.7291667,46.276158 15.1000073,50.7949102 C15.0670934,50.7859585 15.0335467,50.7789249 15,50.7738095 C14.9664533,50.7789249 14.9329066,50.7859585 14.8999927,50.7949102 C14.2708333,46.276158 10.4427083,42.9160273 5.92592593,42.9166667 L3.33333333,42.9166667 C3.33333333,47.979562 7.39565241,52.0833333 12.4074074,52.0833333 L13.7037037,52.0833333 L13.7037037,59.9404762 C13.7037037,60.6636556 14.2841254,61.25 15,61.25 C15.7158746,61.25 16.2962963,60.6636556 16.2962963,59.9404762 L16.2962963,52.0833333 L17.5925926,52.0833333 C22.6043476,52.0833333 26.6666667,47.979562 26.6666667,42.9166667 L24.0740741,42.9166667 Z" id="Path" fill="#91CC04"></path>
            <path d="M49.0740741,34.5833333 C45.7940899,34.5826886 42.7698206,36.4049538 41.1665401,39.3489635 C40.9570312,38.8821668 40.503201,38.5833333 40.0037978,38.5833333 C39.5043945,38.5833333 39.0505642,38.8821668 38.8410554,39.3489635 C37.2365089,36.4030007 34.2090748,34.5794333 30.9259259,34.5833333 L28.3333333,34.5833333 C28.3333333,39.7382864 32.3956524,43.9166707 37.4074074,43.9166707 L38.7037037,43.9166707 L38.7037037,59.916667 C38.7037037,60.652995 39.2841254,61.25 40,61.25 C40.7158746,61.25 41.2962963,60.652995 41.2962963,59.916667 L41.2962963,43.9166707 L42.5925926,43.9166707 C47.6043476,43.9166707 51.6666667,39.7382864 51.6666667,34.5833333 L49.0740741,34.5833333 Z" id="Path" fill="#4E901E"></path>
            <polygon id="Path" fill="#A78966" points="0 59.5833333 80 59.5833333 80 62.9166667 0 62.9166667"></polygon>
            <path d="M33.931673,35.8233766 C33.0730698,35.2210124 32.1086753,35.2963079 31.7784433,35.9924363 C31.4476268,36.6878544 31.8760517,37.7405711 32.734655,38.3429353 C33.5938428,38.9460097 34.5576527,38.8700038 34.8884692,38.1745857 C35.2187012,37.4784573 34.7908609,36.4257408 33.931673,35.8233766 Z" id="Path" fill="#75A950"></path>
            <path d="M48.2215543,35.9920809 C47.8913153,35.2966628 46.9269003,35.2206569 46.0682788,35.8237315 C45.2096572,36.4260957 44.7812232,37.4788122 45.1114623,38.1742303 C45.4422858,38.8703587 46.4067008,38.9456543 47.2653223,38.3432901 C48.1239438,37.7402155 48.5523778,36.6882093 48.2215543,35.9920809 Z" id="Path" fill="#75A950"></path>
        </g>
    </g>
</svg>